<?xml version="1.0" encoding="UTF-8"?>
<!DOCTYPE svg PUBLIC "-//W3C//DTD SVG 1.1//EN" "http://www.w3.org/Graphics/SVG/1.1/DTD/svg11.dtd">
<!-- Creator: CorelDRAW 2018 (64 Bit) -->
<svg xmlns="http://www.w3.org/2000/svg" xml:space="preserve" width="16px" height="16px" version="1.1" style="shape-rendering:geometricPrecision; text-rendering:geometricPrecision; image-rendering:optimizeQuality; fill-rule:evenodd; clip-rule:evenodd"
viewBox="0 0 0.622 0.622"
 xmlns:xlink="http://www.w3.org/1999/xlink">
 <defs>
  <style type="text/css">
   <![CDATA[
    .fil0 {fill:#55ACEE}
    .fil1 {fill:white}
   ]]>
  </style>
 </defs>
 <g id="Conteúdo_x0020_de_x0020_símbolos">
  <metadata id="CorelCorpID_0Corel-Layer"/>
  <g id="_2098911748976">
   <path class="fil0" d="M0.078 0l0.466 0c0.043,0 0.078,0.035 0.078,0.078l0 0.466c0,0.043 -0.035,0.078 -0.078,0.078l-0.466 0c-0.043,0 -0.078,-0.035 -0.078,-0.078l0 -0.466c0,-0.043 0.035,-0.078 0.078,-0.078z"/>
   <path class="fil1" d="M0.546 0.165c-0.017,0.008 -0.036,0.013 -0.056,0.016 0.02,-0.012 0.036,-0.031 0.043,-0.054 -0.019,0.011 -0.039,0.019 -0.061,0.024 -0.018,-0.019 -0.043,-0.031 -0.071,-0.031 -0.053,0 -0.096,0.043 -0.096,0.097 0,0.007 0.001,0.015 0.003,0.022 -0.081,-0.004 -0.152,-0.043 -0.199,-0.101 -0.008,0.014 -0.013,0.031 -0.013,0.048 0,0.034 0.017,0.063 0.043,0.081 -0.016,-0.001 -0.031,-0.005 -0.044,-0.013 0,0.001 0,0.001 0,0.002 0,0.046 0.033,0.085 0.077,0.094 -0.008,0.002 -0.016,0.004 -0.025,0.004 -0.006,0 -0.012,-0.001 -0.018,-0.002 0.012,0.038 0.048,0.066 0.09,0.067 -0.033,0.026 -0.075,0.041 -0.12,0.041 -0.008,0 -0.015,-0.001 -0.023,-0.001 0.043,0.027 0.094,0.043 0.148,0.043 0.177,0 0.274,-0.147 0.274,-0.274 0,-0.004 0,-0.009 0,-0.013 0.019,-0.013 0.035,-0.03 0.048,-0.05z"/>
  </g>
 </g>
</svg>
