<?xml version="1.0" encoding="UTF-8"?>
<!DOCTYPE svg PUBLIC "-//W3C//DTD SVG 1.1//EN" "http://www.w3.org/Graphics/SVG/1.1/DTD/svg11.dtd">
<!-- Creator: CorelDRAW 2018 (64 Bit) -->
<svg xmlns="http://www.w3.org/2000/svg" xml:space="preserve" width="156px" height="200px" version="1.1" style="shape-rendering:geometricPrecision; text-rendering:geometricPrecision; image-rendering:optimizeQuality; fill-rule:evenodd; clip-rule:evenodd"
viewBox="0 0 156 199.475"
 xmlns:xlink="http://www.w3.org/1999/xlink">
 <defs>
  <style type="text/css">
   <![CDATA[
    .fil0 {fill:#16AE9B}
    .fil3 {fill:#16AE9B}
    .fil1 {fill:#333333}
    .fil2 {fill:white;fill-rule:nonzero}
   ]]>
  </style>
 </defs>
 <g id="Conteúdo_x0020_de_x0020_símbolos">
  <metadata id="CorelCorpID_0Corel-Layer"/>
  <g id="_2098540801472">
   <rect class="fil0" width="156" height="199.475" rx="5.115" ry="5.113"/>
   <polygon class="fil1" points="148.328,143.788 148.328,191.803 7.672,191.803 7.672,143.788 "/>
   <polygon class="fil1" points="7.672,7.672 148.328,7.672 148.328,136.116 7.672,136.116 "/>
   <g>
    <path class="fil2" d="M76.077 52.576c-16.302,35.221 -9.176,20.329 -23.245,49.553 -0.726,1.551 -1.099,2.748 -1.099,3.632 0,1.708 1.296,2.886 3.868,3.533l0 1.885 -25.974 0 0 -1.885c1.531,-0.314 2.709,-0.843 3.514,-1.609 0.805,-0.766 1.727,-2.258 2.748,-4.477l28.88 -60.311c0.923,-1.924 1.375,-3.455 1.375,-4.614 0,-1.767 -1.1,-3.023 -3.338,-3.789l0 -1.885 27.839 0 0 1.885c-2.278,0.648 -3.397,1.787 -3.397,3.397 0,1.099 0.354,2.375 1.08,3.789l29.881 60.488c1.276,2.572 2.375,4.319 3.338,5.261 0.962,0.943 2.238,1.551 3.848,1.865l0 1.885 -28.978 0 0 -1.885c2.532,-0.432 3.789,-1.609 3.789,-3.573 0,-0.824 -0.393,-2.022 -1.159,-3.592 -19.104,-38.83 -3.602,-6.927 -22.97,-49.553z"/>
    <polygon class="fil3" points="43.277,69.871 38.414,75.32 63.717,100.382 126.374,40.283 116.88,39.193 65.801,81.313 "/>
   </g>
   <g>
    <path class="fil2" d="M124.791 161.512l0 14.208c0,0.286 0.065,0.502 0.192,0.647 0.126,0.145 0.351,0.262 0.679,0.356l0 0.45 -5.848 0 0 -0.45c0.328,-0.094 0.553,-0.211 0.679,-0.356 0.127,-0.145 0.193,-0.361 0.193,-0.647l0 -14.208 -5.793 0c-0.271,0 -0.482,0.061 -0.627,0.187 -0.146,0.122 -0.267,0.352 -0.356,0.684l-0.45 0 0 -4.836 0.45 0c0.098,0.333 0.22,0.558 0.36,0.685 0.146,0.126 0.352,0.187 0.623,0.187l15.676 0c0.281,0 0.496,-0.061 0.641,-0.187 0.146,-0.127 0.268,-0.352 0.357,-0.685l0.449 0 0 4.836 -0.449 0c-0.089,-0.332 -0.211,-0.562 -0.357,-0.684 -0.145,-0.126 -0.36,-0.187 -0.641,-0.187l-5.778 0z"/>
    <path class="fil2" d="M96.969 169.525l0 6.209c0,0.276 0.066,0.488 0.197,0.637 0.131,0.155 0.356,0.268 0.675,0.352l0 0.45 -5.848 0 0 -0.45c0.328,-0.094 0.553,-0.211 0.679,-0.356 0.127,-0.145 0.192,-0.357 0.192,-0.633l0 -15.862c0,-0.286 -0.065,-0.502 -0.192,-0.647 -0.126,-0.145 -0.351,-0.267 -0.679,-0.356l0 -0.45 11.734 0c1.429,0 2.563,0.084 3.402,0.248 0.839,0.164 1.57,0.455 2.193,0.867 0.721,0.478 1.261,1.125 1.621,1.94 0.338,0.787 0.506,1.631 0.506,2.531 0,3.065 -1.701,4.855 -5.098,5.379l3.641 5.16c0.637,0.904 1.106,1.485 1.406,1.748 0.3,0.258 0.661,0.403 1.091,0.431l0 0.45 -6.78 0 0 -0.45c0.464,-0.075 0.698,-0.239 0.698,-0.492 0,-0.164 -0.215,-0.563 -0.647,-1.195l-3.819 -5.511 -4.972 0zm0 -3.093l6.322 0c0.933,0 1.593,-0.028 1.977,-0.084 0.385,-0.052 0.741,-0.169 1.06,-0.342 0.698,-0.375 1.044,-1.055 1.044,-2.034 0,-0.979 -0.346,-1.659 -1.044,-2.034 -0.329,-0.183 -0.68,-0.3 -1.05,-0.351 -0.371,-0.052 -1.036,-0.075 -1.987,-0.075l-6.322 0 0 4.92z"/>
    <path class="fil2" d="M75.605 168.935l0 5.145 12.03 0c0.276,0 0.487,-0.066 0.632,-0.192 0.146,-0.127 0.267,-0.352 0.357,-0.68l0.449 0 0 4.836 -0.449 0c-0.09,-0.328 -0.211,-0.553 -0.357,-0.679 -0.145,-0.127 -0.356,-0.192 -0.632,-0.192l-17.006 0 0 -0.45c0.328,-0.094 0.553,-0.211 0.679,-0.356 0.127,-0.145 0.193,-0.361 0.193,-0.647l0 -15.848c0,-0.286 -0.066,-0.502 -0.193,-0.647 -0.126,-0.145 -0.351,-0.267 -0.679,-0.356l0 -0.45 16.668 0c0.277,0 0.488,-0.066 0.633,-0.192 0.145,-0.131 0.267,-0.356 0.356,-0.68l0.45 0 0 4.836 -0.45 0c-0.089,-0.323 -0.211,-0.548 -0.356,-0.679 -0.145,-0.127 -0.356,-0.192 -0.628,-0.192l-11.697 0 0 4.442 7.592 0c0.272,0 0.483,-0.066 0.628,-0.192 0.145,-0.126 0.267,-0.351 0.356,-0.68l0.45 0 0 4.724 -0.45 0c-0.089,-0.318 -0.211,-0.544 -0.356,-0.675 -0.145,-0.131 -0.356,-0.196 -0.628,-0.196l-7.592 0z"/>
    <path class="fil2" d="M65.207 170.748l2.615 3.908 -0.356 0.249c-0.258,-0.239 -0.469,-0.356 -0.633,-0.356 -0.164,0 -0.628,0.215 -1.387,0.656 -1.574,0.904 -2.901,1.518 -3.978,1.832 -1.078,0.314 -2.357,0.473 -3.843,0.473 -2.957,0 -5.385,-0.703 -7.282,-2.104 -1.116,-0.815 -1.997,-1.828 -2.639,-3.036 -0.74,-1.388 -1.11,-2.91 -1.11,-4.584 0,-2.272 0.665,-4.245 1.991,-5.923 1.997,-2.521 5.014,-3.781 9.054,-3.781 1.485,0 2.76,0.154 3.824,0.468 1.059,0.309 2.39,0.923 3.983,1.837 0.759,0.431 1.223,0.642 1.387,0.642 0.164,0 0.375,-0.117 0.633,-0.356l0.356 0.248 -2.615 3.913 -0.37 -0.248c0.019,-0.145 0.028,-0.267 0.028,-0.37 0,-0.263 -0.113,-0.511 -0.342,-0.746 -0.23,-0.234 -0.638,-0.515 -1.228,-0.843 -1.621,-0.914 -3.341,-1.368 -5.155,-1.368 -2.146,0 -3.856,0.539 -5.131,1.612 -1.504,1.256 -2.254,2.896 -2.254,4.925 0,2.029 0.75,3.669 2.254,4.925 1.275,1.073 2.985,1.612 5.131,1.612 1.814,0 3.534,-0.459 5.155,-1.373 0.59,-0.328 0.998,-0.609 1.228,-0.843 0.229,-0.235 0.342,-0.483 0.342,-0.75 0,-0.099 -0.009,-0.22 -0.028,-0.356l0.37 -0.263z"/>
    <g>
     <path class="fil2" d="M35.071 163.185c-3.891,8.407 -2.191,4.852 -5.549,11.827 -0.173,0.371 -0.262,0.657 -0.262,0.868 0,0.407 0.309,0.688 0.923,0.843l0 0.45 -6.199 0 0 -0.45c0.365,-0.075 0.646,-0.202 0.838,-0.384 0.192,-0.183 0.413,-0.539 0.656,-1.069l6.894 -14.396c0.22,-0.459 0.328,-0.824 0.328,-1.101 0,-0.422 -0.263,-0.722 -0.797,-0.904l0 -0.45 6.645 0 0 0.45c-0.544,0.154 -0.811,0.426 -0.811,0.81 0,0.263 0.085,0.567 0.258,0.905l7.132 14.438c0.305,0.614 0.567,1.031 0.797,1.256 0.229,0.225 0.534,0.37 0.918,0.445l0 0.45 -6.916 0 0 -0.45c0.604,-0.103 0.904,-0.384 0.904,-0.853 0,-0.197 -0.094,-0.483 -0.276,-0.858 -4.56,-9.268 -0.86,-1.653 -5.483,-11.827z"/>
     <polygon class="fil3" points="27.242,167.313 26.081,168.613 32.12,174.595 47.076,160.25 44.81,159.99 32.618,170.044 "/>
    </g>
   </g>
  </g>
 </g>
</svg>
