<?xml version="1.0" encoding="UTF-8"?>
<!DOCTYPE svg PUBLIC "-//W3C//DTD SVG 1.1//EN" "http://www.w3.org/Graphics/SVG/1.1/DTD/svg11.dtd">
<!-- Creator: CorelDRAW 2018 (64 Bit) -->
<svg xmlns="http://www.w3.org/2000/svg" xml:space="preserve" width="552px" height="134px" version="1.1" style="shape-rendering:geometricPrecision; text-rendering:geometricPrecision; image-rendering:optimizeQuality; fill-rule:evenodd; clip-rule:evenodd"
viewBox="0 0 552 133.974"
 xmlns:xlink="http://www.w3.org/1999/xlink">
 <defs>
  <style type="text/css">
   <![CDATA[
    .fil1 {fill:#16AE9B}
    .fil0 {fill:#333333;fill-rule:nonzero}
   ]]>
  </style>
 </defs>
 <g id="Camada_x0020_1">
  <metadata id="CorelCorpID_0Corel-Layer"/>
  <g id="_2098911861392">
   <path class="fil0" d="M4.313 107.328c0,-0.887 0.384,-1.123 0.827,-1.123l0 -0.355 -5.14 0 0 0.355c0.443,0 0.827,0.236 0.827,1.123l0 18.551c0,0.887 -0.384,1.123 -0.827,1.123l0 0.354 5.14 0 0 -0.354c-0.443,0 -0.827,-0.236 -0.827,-1.123l0 -18.551zm18.138 3.19c0,-0.473 0.355,-0.827 0.798,-0.827l0 -0.355 -4.136 0 0 0.355c0.443,0 0.739,0.354 0.739,0.827l0 11.344 -0.059 0 -6.559 -10.517c-0.295,-0.473 -0.561,-0.798 -0.561,-1.211 0,-0.295 0.207,-0.413 0.502,-0.443l0 -0.355 -5.021 0 0 0.355c0.442,0 0.738,0.354 0.738,0.827l0 15.657c0,0.473 -0.296,0.827 -0.738,0.827l0 0.354 4.076 0 0 -0.354c-0.443,0 -0.738,-0.354 -0.738,-0.827l0 -12.407 0.059 0 6.971 11.432c0.207,0.354 0.65,1.063 0.65,1.418 0,0.207 -0.118,0.384 -0.65,0.384l0 0.354 4.727 0 0 -0.354c-0.443,0 -0.798,-0.354 -0.798,-0.827l0 -15.657zm3.427 15.125l0.266 0.177c0.059,-0.029 0.118,-0.088 0.207,-0.088 0.266,0 1.004,0.472 2.068,0.975 1.034,0.472 2.54,0.945 4.696,0.945 3.9,0 6.677,-2.068 6.677,-5.647 0,-7.238 -10.753,-3.521 -10.753,-8.006 0,-1.477 1.418,-2.417 3.9,-2.417 2.894,0 4.578,1.117 4.578,2.506l0.296 0.147 1.801 -3.51 -0.295 -0.118c-0.088,0.088 -0.206,0.147 -0.325,0.147 -0.236,0 -0.768,-0.443 -1.772,-0.856 -1.034,-0.414 -2.511,-0.857 -4.638,-0.857 -4.018,0 -6.322,2.363 -6.322,5.49 0,6.972 10.635,3.362 10.635,7.621 0,2.014 -1.477,2.96 -3.486,2.96 -2.57,0 -5.406,-1.212 -5.406,-2.576l0 -0.413 -0.295 -0.178 -1.832 3.698zm25.523 -6.026c3.339,0 5.347,-1.773 5.347,-5.022 0,-3.752 -2.067,-5.259 -6.558,-5.259l-7.562 0 0 0.355c0.443,0 0.738,0.354 0.738,0.827l0 15.657c0,0.473 -0.295,0.827 -0.738,0.827l0 0.354 4.49 0 0 -0.354c-0.443,0 -0.739,-0.354 -0.739,-0.827l0 -6.558 5.022 0zm-0.472 -7.74c1.831,0 2.806,0.65 2.806,2.629 0,1.979 -0.975,2.57 -3.042,2.57l-4.314 0 0 -5.199 4.55 0zm18.345 4.313l-0.355 0c-0.029,0.384 -0.236,0.591 -0.945,0.591l-5.17 0 0 -4.904 8.596 0c0.709,0 0.916,0.207 0.946,0.591l0.354 0 0 -3.722 -0.354 0c-0.03,0.384 -0.237,0.59 -0.946,0.59l-12.348 0 0 0.355c0.444,0 0.739,0.354 0.739,0.827l0 15.657c0,0.473 -0.295,0.827 -0.739,0.827l0 0.354 12.407 0c0.709,0 0.916,0.207 0.946,0.591l0.354 0 0 -3.722 -0.354 0c-0.03,0.384 -0.237,0.591 -0.946,0.591l-8.655 0 0 -5.495 5.17 0c0.709,0 0.916,0.207 0.945,0.591l0.355 0 0 -3.722zm19.674 -5.465c-0.118,0.147 -0.237,0.147 -0.414,0.147 -0.325,0 -0.886,-0.472 -1.802,-0.945 -0.916,-0.443 -2.216,-0.886 -3.988,-0.886 -4.313,0 -7.799,3.722 -7.799,9.305 0,5.377 2.777,9.01 7.474,9.276l-1.684 2.275 0.503 0.591c0.265,-0.059 0.915,-0.266 1.152,-0.237 0.768,0.089 1.447,0.296 1.447,1.182 0,0.916 -0.916,1.182 -1.684,1.182 -0.679,0 -1.329,-0.148 -1.92,-0.443l-0.532 1.181c0.916,0.384 1.891,0.621 2.895,0.621 1.684,0 3.486,-0.798 3.486,-2.718 0,-1.329 -1.122,-2.186 -2.393,-2.186 -0.354,0 -0.679,0.059 -1.034,0.118l1.182 -1.625c3.22,-0.295 4.638,-2.481 5.347,-2.481 0.118,0 0.266,0.118 0.325,0.177l0.325 -0.177 -2.186 -2.984 -0.355 0.089c0,1.979 -2.363,2.925 -3.958,2.925 -3.604,0 -5.377,-2.423 -5.377,-6.766 0,-4.342 2.186,-6.617 5.377,-6.764 1.241,-0.059 3.722,0.561 3.722,2.51l0.355 0.06 1.772 -3.309 -0.236 -0.118zm15.538 7.621c0,4.343 -1.772,6.766 -5.051,6.766 -3.279,0 -5.052,-2.423 -5.052,-6.766 0,-4.342 1.773,-6.764 5.052,-6.764 3.279,0 5.051,2.422 5.051,6.764zm3.013 0c0,-5.583 -3.013,-9.305 -8.064,-9.305 -5.052,0 -8.065,3.722 -8.065,9.305 0,5.584 3.013,9.306 8.065,9.306 5.051,0 8.064,-3.722 8.064,-9.306zm-4.431 -14.386c-0.088,0.798 -0.561,1.359 -1.388,1.359 -0.591,0 -1.241,-0.296 -1.891,-0.561 -0.68,-0.296 -1.388,-0.562 -2.186,-0.562 -1.861,0 -2.954,1.418 -3.072,3.191l1.359 0c0.088,-0.798 0.561,-1.359 1.388,-1.359 0.62,0 1.241,0.266 1.92,0.561 0.65,0.266 1.389,0.561 2.157,0.561 1.861,0 2.954,-1.417 3.072,-3.19l-1.359 0zm17.104 12.23l-0.354 0c-0.03,0.384 -0.237,0.591 -0.945,0.591l-5.17 0 0 -4.904 8.596 0c0.709,0 0.916,0.207 0.946,0.591l0.354 0 0 -3.722 -0.354 0c-0.03,0.384 -0.237,0.59 -0.946,0.59l-12.348 0 0 0.355c0.443,0 0.739,0.354 0.739,0.827l0 15.657c0,0.473 -0.296,0.827 -0.739,0.827l0 0.354 12.407 0c0.709,0 0.916,0.207 0.946,0.591l0.354 0 0 -3.722 -0.354 0c-0.03,0.384 -0.237,0.591 -0.946,0.591l-8.655 0 0 -5.495 5.17 0c0.708,0 0.915,0.207 0.945,0.591l0.354 0 0 -3.722zm5.879 9.453l0.266 0.177c0.059,-0.029 0.118,-0.088 0.207,-0.088 0.265,0 1.004,0.472 2.067,0.975 1.034,0.472 2.541,0.945 4.697,0.945 3.9,0 6.677,-2.068 6.677,-5.647 0,-7.238 -10.753,-3.521 -10.753,-8.006 0,-1.477 1.418,-2.417 3.899,-2.417 2.895,0 4.579,1.117 4.579,2.506l0.296 0.147 1.801 -3.51 -0.295 -0.118c-0.089,0.088 -0.207,0.147 -0.325,0.147 -0.236,0 -0.768,-0.443 -1.772,-0.856 -1.034,-0.414 -2.512,-0.857 -4.638,-0.857 -4.018,0 -6.322,2.363 -6.322,5.49 0,6.972 10.635,3.362 10.635,7.621 0,2.014 -1.477,2.96 -3.486,2.96 -2.57,0 -5.406,-1.212 -5.406,-2.576l0 -0.413 -0.295 -0.178 -1.832 3.698zm26.793 -5.76c0,1.093 0.886,1.979 1.98,1.979 1.093,0 1.979,-0.886 1.979,-1.979 0,-1.094 -0.886,-1.98 -1.979,-1.98 -1.094,0 -1.98,0.886 -1.98,1.98zm33.913 -12.053l-0.295 -0.177c-0.089,0.088 -0.266,0.207 -0.473,0.207 -0.266,0 -0.916,-0.562 -2.009,-1.153 -1.093,-0.59 -2.659,-1.152 -4.815,-1.152 -6.44,0 -9.926,5.317 -9.926,11.048 0,5.731 3.486,11.049 9.808,11.049 4.963,0 6.351,-2.777 7.592,-2.777 0.118,0 0.207,0.059 0.266,0.059l0.236 -0.118 -2.629 -3.604 -0.295 0.177c0.029,0.148 0.059,0.296 0.059,0.443 0,1.448 -2.541,2.925 -4.993,2.866 -4.667,-0.089 -6.558,-4.018 -6.558,-8.154 0,-4.076 2.009,-8.035 6.47,-8.035 2.363,0 4.785,1.241 4.785,2.393 0,0.266 0.059,0.443 0,0.561l0.355 0.148 2.422 -3.781zm12.998 8.36l-0.354 0c-0.03,0.384 -0.237,0.591 -0.946,0.591l-5.169 0 0 -4.904 8.596 0c0.709,0 0.916,0.207 0.945,0.591l0.355 0 0 -3.722 -0.355 0c-0.029,0.384 -0.236,0.59 -0.945,0.59l-12.348 0 0 0.355c0.443,0 0.738,0.354 0.738,0.827l0 15.657c0,0.473 -0.295,0.827 -0.738,0.827l0 0.354 12.407 0c0.709,0 0.916,0.207 0.945,0.591l0.355 0 0 -3.722 -0.355 0c-0.029,0.384 -0.236,0.591 -0.945,0.591l-8.655 0 0 -5.495 5.169 0c0.709,0 0.916,0.207 0.946,0.591l0.354 0 0 -3.722zm20.442 11.166l0 -0.354c-0.532,-0.059 -0.797,-0.177 -1.034,-0.709l-3.338 -6.854c2.423,-0.472 3.781,-2.156 3.781,-4.844 0,-3.752 -2.067,-5.259 -6.558,-5.259l-7.089 0 0 0.355c0.443,0 0.738,0.354 0.738,0.827l0 15.657c0,0.473 -0.295,0.827 -0.738,0.827l0 0.354 4.49 0 0 -0.354c-0.443,0 -0.739,-0.354 -0.739,-0.827l0 -6.558 2.984 0 3.161 6.41c0.088,0.148 0.177,0.414 0.177,0.591 0,0.266 -0.236,0.384 -0.738,0.384l0 0.354 4.903 0zm-10.487 -15.479l4.077 0c1.831,0 2.806,0.65 2.806,2.629 0,1.979 -0.975,2.57 -3.042,2.57l-3.841 0 0 -5.199zm20.827 15.479l0 -0.354c-0.444,0 -0.739,-0.354 -0.739,-0.827l0 -14.298 4.047 0c0.709,0 0.916,0.207 0.946,0.591l0.354 0 0 -3.722 -0.354 0c-0.03,0.384 -0.237,0.59 -0.946,0.59l-11.107 0c-0.709,0 -0.916,-0.206 -0.945,-0.59l-0.355 0 0 3.722 0.355 0c0.029,-0.384 0.236,-0.591 0.945,-0.591l4.047 0 0 14.298c0,0.473 -0.296,0.827 -0.739,0.827l0 0.354 4.491 0zm11.491 0l0 -0.354c-0.443,0 -0.739,-0.354 -0.739,-0.827l0 -15.657c0,-0.473 0.296,-0.827 0.739,-0.827l0 -0.355 -4.49 0 0 0.355c0.443,0 0.738,0.354 0.738,0.827l0 15.657c0,0.473 -0.295,0.827 -0.738,0.827l0 0.354 4.49 0zm4.077 -1.181c0,0.473 -0.296,0.827 -0.739,0.827l0 0.354 4.49 0 0 -0.354c-0.443,0 -0.738,-0.354 -0.738,-0.827l0 -6.854 4.933 0c0.709,0 0.916,0.207 0.945,0.591l0.355 0 0 -3.722 -0.355 0c-0.029,0.384 -0.236,0.591 -0.945,0.591l-4.933 0 0 -4.904 7.888 0c0.708,0 0.915,0.207 0.945,0.591l0.354 0 0 -3.722 -0.354 0c-0.03,0.384 -0.237,0.59 -0.945,0.59l-11.64 0 0 0.355c0.443,0 0.739,0.354 0.739,0.827l0 15.657zm18.906 1.181l0 -0.354c-0.443,0 -0.739,-0.354 -0.739,-0.827l0 -15.657c0,-0.473 0.296,-0.827 0.739,-0.827l0 -0.355 -4.49 0 0 0.355c0.443,0 0.738,0.354 0.738,0.827l0 15.657c0,0.473 -0.295,0.827 -0.738,0.827l0 0.354 4.49 0zm16.809 -16.631c-0.118,0.147 -0.236,0.147 -0.414,0.147 -0.325,0 -0.886,-0.472 -1.802,-0.945 -0.916,-0.443 -2.215,-0.886 -3.988,-0.886 -4.313,0 -7.798,3.722 -7.798,9.305 0,5.584 3.013,9.306 8.064,9.306 3.811,0 5.406,-2.57 6.174,-2.57 0.118,0 0.266,0.118 0.325,0.177l0.325 -0.177 -2.186 -2.984 -0.354 0.089c0,1.979 -2.363,2.925 -3.959,2.925 -3.604,0 -5.376,-2.423 -5.376,-6.766 0,-4.342 2.186,-6.617 5.376,-6.764 1.241,-0.059 3.722,0.561 3.722,2.51l0.355 0.06 1.772 -3.309 -0.236 -0.118zm9.541 2.038l0.059 0 2.216 7.208 -4.52 0 2.245 -7.208zm-3.899 14.593l0 -0.354c-0.384,-0.059 -0.502,-0.148 -0.502,-0.473 0,-0.206 0.059,-0.384 0.147,-0.65l1.212 -3.367 6.056 0 1.211 3.456c0.088,0.207 0.177,0.532 0.177,0.709 0,0.237 -0.089,0.325 -0.354,0.325l0 0.354 4.017 0 0 -0.354c-0.472,-0.059 -0.561,-0.236 -0.797,-0.945l-4.757 -14.83c-0.177,-0.532 -0.206,-0.827 -0.206,-1.063 0,-0.266 0.118,-0.414 0.354,-0.473l0 -0.355 -4.786 0 0 0.355c0.237,0.03 0.355,0.177 0.355,0.384 0,0.148 0,0.384 -0.059,0.532l-4.934 15.006c-0.266,0.739 -0.383,1.301 -1.004,1.389l0 0.354 3.87 0zm27.207 -16.631c-0.118,0.147 -0.236,0.147 -0.413,0.147 -0.326,0 -0.887,-0.472 -1.803,-0.945 -0.915,-0.443 -2.215,-0.886 -3.988,-0.886 -4.313,0 -7.798,3.722 -7.798,9.305 0,5.377 2.777,9.01 7.473,9.276l-1.683 2.275 0.502 0.591c0.266,-0.059 0.915,-0.266 1.152,-0.237 0.768,0.089 1.448,0.296 1.448,1.182 0,0.916 -0.916,1.182 -1.685,1.182 -0.679,0 -1.329,-0.148 -1.919,-0.443l-0.532 1.181c0.916,0.384 1.89,0.621 2.895,0.621 1.684,0 3.486,-0.798 3.486,-2.718 0,-1.329 -1.123,-2.186 -2.393,-2.186 -0.355,0 -0.68,0.059 -1.034,0.118l1.182 -1.625c3.219,-0.295 4.638,-2.481 5.346,-2.481 0.119,0 0.266,0.118 0.325,0.177l0.325 -0.177 -2.186 -2.984 -0.354 0.089c0,1.979 -2.363,2.925 -3.959,2.925 -3.603,0 -5.376,-2.423 -5.376,-6.766 0,-4.342 2.186,-6.617 5.376,-6.764 1.241,-0.059 3.722,0.561 3.722,2.51l0.355 0.06 1.772 -3.309 -0.236 -0.118zm15.538 7.621c0,4.343 -1.772,6.766 -5.051,6.766 -3.279,0 -5.051,-2.423 -5.051,-6.766 0,-4.342 1.772,-6.764 5.051,-6.764 3.279,0 5.051,2.422 5.051,6.764zm3.013 0c0,-5.583 -3.013,-9.305 -8.064,-9.305 -5.051,0 -8.065,3.722 -8.065,9.305 0,5.584 3.014,9.306 8.065,9.306 5.051,0 8.064,-3.722 8.064,-9.306zm-4.43 -14.386c-0.089,0.798 -0.562,1.359 -1.389,1.359 -0.591,0 -1.241,-0.296 -1.891,-0.561 -0.679,-0.296 -1.388,-0.562 -2.186,-0.562 -1.861,0 -2.954,1.418 -3.072,3.191l1.359 0c0.089,-0.798 0.561,-1.359 1.389,-1.359 0.62,0 1.24,0.266 1.92,0.561 0.65,0.266 1.388,0.561 2.156,0.561 1.861,0 2.954,-1.417 3.073,-3.19l-1.359 0zm17.104 12.23l-0.354 0c-0.03,0.384 -0.237,0.591 -0.946,0.591l-5.17 0 0 -4.904 8.597 0c0.709,0 0.916,0.207 0.945,0.591l0.355 0 0 -3.722 -0.355 0c-0.029,0.384 -0.236,0.59 -0.945,0.59l-12.348 0 0 0.355c0.443,0 0.738,0.354 0.738,0.827l0 15.657c0,0.473 -0.295,0.827 -0.738,0.827l0 0.354 12.407 0c0.709,0 0.916,0.207 0.945,0.591l0.355 0 0 -3.722 -0.355 0c-0.029,0.384 -0.236,0.591 -0.945,0.591l-8.656 0 0 -5.495 5.17 0c0.709,0 0.916,0.207 0.946,0.591l0.354 0 0 -3.722zm5.879 9.453l0.265 0.177c0.059,-0.029 0.118,-0.088 0.207,-0.088 0.266,0 1.005,0.472 2.068,0.975 1.034,0.472 2.54,0.945 4.697,0.945 3.899,0 6.676,-2.068 6.676,-5.647 0,-7.238 -10.753,-3.521 -10.753,-8.006 0,-1.477 1.418,-2.417 3.9,-2.417 2.895,0 4.579,1.117 4.579,2.506l0.295 0.147 1.802 -3.51 -0.296 -0.118c-0.088,0.088 -0.206,0.147 -0.324,0.147 -0.237,0 -0.768,-0.443 -1.773,-0.856 -1.034,-0.414 -2.511,-0.857 -4.638,-0.857 -4.018,0 -6.322,2.363 -6.322,5.49 0,6.972 10.635,3.362 10.635,7.621 0,2.014 -1.477,2.96 -3.486,2.96 -2.57,0 -5.406,-1.212 -5.406,-2.576l0 -0.413 -0.295 -0.178 -1.831 3.698zm26.793 -5.76c0,1.093 0.886,1.979 1.979,1.979 1.093,0 1.979,-0.886 1.979,-1.979 0,-1.094 -0.886,-1.98 -1.979,-1.98 -1.093,0 -1.979,0.886 -1.979,1.98zm25.346 -9.956l0.059 0 2.658 8.686 -5.553 0 2.836 -8.686zm3.663 11.58l1.241 3.781c0.088,0.325 0.207,0.739 0.207,1.064 0,0.384 -0.119,0.591 -0.532,0.65l0 0.354 4.785 0 0 -0.354c-0.472,0 -0.65,-0.62 -0.797,-1.093l-5.908 -18.315c-0.089,-0.266 -0.148,-0.503 -0.148,-0.71 0,-0.384 0.206,-0.59 0.531,-0.679l0 -0.355 -5.583 0 0 0.355c0.384,0.059 0.502,0.295 0.502,0.65 0,0.236 -0.088,0.561 -0.147,0.709l-6.027 18.138c-0.354,1.093 -0.591,1.241 -1.093,1.3l0 0.354 4.431 0 0 -0.354c-0.265,-0.088 -0.502,-0.266 -0.502,-0.591 0,-0.148 0.089,-0.473 0.148,-0.679l1.418 -4.225 7.474 0zm6.558 -12.171l0 0.355c0.266,0.089 0.62,0.414 0.768,0.916l5.17 15.361c0.059,0.177 0.147,0.502 0.147,0.65 0,0.148 -0.059,0.355 -0.354,0.384l0 0.354 4.431 0 0 -0.354c-0.236,-0.029 -0.384,-0.207 -0.384,-0.473 0,-0.206 0.088,-0.502 0.236,-0.945l4.786 -14.83c0.177,-0.531 0.266,-1.004 0.916,-1.063l0 -0.355 -4.107 0 0 0.355c0.473,0.089 0.621,0.266 0.621,0.62 0,0.177 -0.059,0.355 -0.118,0.561l-4.077 12.703 -0.059 0 -3.84 -12.318c-0.089,-0.237 -0.266,-0.798 -0.296,-1.034 -0.029,-0.296 0.089,-0.502 0.709,-0.532l0 -0.355 -4.549 0zm24.135 3.427l0.058 0 2.216 7.208 -4.52 0 2.246 -7.208zm-3.9 14.593l0 -0.354c-0.384,-0.059 -0.502,-0.148 -0.502,-0.473 0,-0.206 0.059,-0.384 0.148,-0.65l1.211 -3.367 6.056 0 1.211 3.456c0.088,0.207 0.177,0.532 0.177,0.709 0,0.237 -0.089,0.325 -0.354,0.325l0 0.354 4.017 0 0 -0.354c-0.472,-0.059 -0.561,-0.236 -0.797,-0.945l-4.757 -14.83c-0.176,-0.532 -0.206,-0.827 -0.206,-1.063 0,-0.266 0.118,-0.414 0.354,-0.473l0 -0.355 -4.785 0 0 0.355c0.236,0.03 0.354,0.177 0.354,0.384 0,0.148 0,0.384 -0.059,0.532l-4.933 15.006c-0.266,0.739 -0.384,1.301 -1.005,1.389l0 0.354 3.87 0zm17.488 -2.54l0 -14.298c0,-0.473 0.296,-0.827 0.739,-0.827l0 -0.355 -4.49 0 0 0.355c0.443,0 0.738,0.354 0.738,0.827l0 15.657c0,0.473 -0.295,0.827 -0.738,0.827l0 0.354 11.698 0c0.709,0 0.916,0.207 0.945,0.591l0.355 0 0 -3.722 -0.355 0c-0.029,0.384 -0.236,0.591 -0.945,0.591l-7.947 0zm15.894 2.54l0 -0.354c-0.444,0 -0.739,-0.354 -0.739,-0.827l0 -15.657c0,-0.473 0.295,-0.827 0.739,-0.827l0 -0.355 -4.491 0 0 0.355c0.443,0 0.739,0.354 0.739,0.827l0 15.657c0,0.473 -0.296,0.827 -0.739,0.827l0 0.354 4.491 0zm9.925 -14.593l0.059 0 2.216 7.208 -4.52 0 2.245 -7.208zm-3.899 14.593l0 -0.354c-0.384,-0.059 -0.502,-0.148 -0.502,-0.473 0,-0.206 0.059,-0.384 0.147,-0.65l1.211 -3.367 6.057 0 1.211 3.456c0.088,0.207 0.177,0.532 0.177,0.709 0,0.237 -0.089,0.325 -0.355,0.325l0 0.354 4.018 0 0 -0.354c-0.473,-0.059 -0.561,-0.236 -0.797,-0.945l-4.757 -14.83c-0.177,-0.532 -0.206,-0.827 -0.206,-1.063 0,-0.266 0.118,-0.414 0.354,-0.473l0 -0.355 -4.786 0 0 0.355c0.237,0.03 0.355,0.177 0.355,0.384 0,0.148 0,0.384 -0.059,0.532l-4.934 15.006c-0.266,0.739 -0.384,1.301 -1.004,1.389l0 0.354 3.87 0zm27.207 -16.631c-0.118,0.147 -0.236,0.147 -0.414,0.147 -0.325,0 -0.886,-0.472 -1.802,-0.945 -0.916,-0.443 -2.215,-0.886 -3.988,-0.886 -4.313,0 -7.798,3.722 -7.798,9.305 0,5.377 2.776,9.01 7.473,9.276l-1.683 2.275 0.502 0.591c0.266,-0.059 0.915,-0.266 1.152,-0.237 0.768,0.089 1.447,0.296 1.447,1.182 0,0.916 -0.916,1.182 -1.684,1.182 -0.679,0 -1.329,-0.148 -1.92,-0.443l-0.531 1.181c0.915,0.384 1.89,0.621 2.895,0.621 1.683,0 3.485,-0.798 3.485,-2.718 0,-1.329 -1.122,-2.186 -2.393,-2.186 -0.354,0 -0.679,0.059 -1.033,0.118l1.181 -1.625c3.22,-0.295 4.638,-2.481 5.347,-2.481 0.119,0 0.266,0.118 0.325,0.177l0.325 -0.177 -2.186 -2.984 -0.354 0.089c0,1.979 -2.363,2.925 -3.959,2.925 -3.604,0 -5.376,-2.423 -5.376,-6.766 0,-4.342 2.186,-6.617 5.376,-6.764 1.241,-0.059 3.722,0.561 3.722,2.51l0.355 0.06 1.772 -3.309 -0.236 -0.118zm15.539 7.621c0,4.343 -1.773,6.766 -5.052,6.766 -3.279,0 -5.052,-2.423 -5.052,-6.766 0,-4.342 1.773,-6.764 5.052,-6.764 3.279,0 5.052,2.422 5.052,6.764zm3.012 0c0,-5.583 -3.012,-9.305 -8.064,-9.305 -5.052,0 -8.065,3.722 -8.065,9.305 0,5.584 3.013,9.306 8.065,9.306 5.052,0 8.064,-3.722 8.064,-9.306zm-4.431 -14.386c-0.088,0.798 -0.561,1.359 -1.388,1.359 -0.591,0 -1.241,-0.296 -1.891,-0.561 -0.679,-0.296 -1.388,-0.562 -2.186,-0.562 -1.861,0 -2.954,1.418 -3.072,3.191l1.359 0c0.088,-0.798 0.561,-1.359 1.388,-1.359 0.621,0 1.241,0.266 1.921,0.561 0.65,0.266 1.388,0.561 2.156,0.561 1.861,0 2.954,-1.417 3.072,-3.19l-1.359 0zm17.105 12.23l-0.355 0c-0.029,0.384 -0.236,0.591 -0.945,0.591l-5.17 0 0 -4.904 8.597 0c0.708,0 0.915,0.207 0.945,0.591l0.354 0 0 -3.722 -0.354 0c-0.03,0.384 -0.237,0.59 -0.945,0.59l-12.349 0 0 0.355c0.444,0 0.739,0.354 0.739,0.827l0 15.657c0,0.473 -0.295,0.827 -0.739,0.827l0 0.354 12.408 0c0.709,0 0.916,0.207 0.945,0.591l0.354 0 0 -3.722 -0.354 0c-0.029,0.384 -0.236,0.591 -0.945,0.591l-8.656 0 0 -5.495 5.17 0c0.709,0 0.916,0.207 0.945,0.591l0.355 0 0 -3.722zm5.878 9.453l0.266 0.177c0.059,-0.029 0.118,-0.088 0.207,-0.088 0.266,0 1.005,0.472 2.068,0.975 1.034,0.472 2.54,0.945 4.697,0.945 3.899,0 6.676,-2.068 6.676,-5.647 0,-7.238 -10.753,-3.521 -10.753,-8.006 0,-1.477 1.418,-2.417 3.9,-2.417 2.894,0 4.578,1.117 4.578,2.506l0.296 0.147 1.802 -3.51 -0.296 -0.118c-0.088,0.088 -0.206,0.147 -0.325,0.147 -0.236,0 -0.768,-0.443 -1.772,-0.856 -1.034,-0.414 -2.511,-0.857 -4.638,-0.857 -4.018,0 -6.322,2.363 -6.322,5.49 0,6.972 10.635,3.362 10.635,7.621 0,2.014 -1.477,2.96 -3.486,2.96 -2.57,0 -5.406,-1.212 -5.406,-2.576l0 -0.413 -0.295 -0.178 -1.832 3.698z"/>
   <g>
    <path class="fil0" d="M454.921 15.16l0 54.33c0,1.093 0.252,1.918 0.735,2.473 0.484,0.556 1.344,1.003 2.598,1.362l0 1.72 -22.363 0 0 -1.72c1.255,-0.359 2.115,-0.806 2.598,-1.362 0.484,-0.555 0.735,-1.38 0.735,-2.473l0 -54.33 -22.148 0c-1.039,0 -1.846,0.233 -2.401,0.717 -0.556,0.465 -1.022,1.344 -1.362,2.616l-1.72 0 0 -18.493 1.72 0c0.377,1.272 0.842,2.133 1.38,2.616 0.555,0.484 1.344,0.717 2.383,0.717l59.94 0c1.074,0 1.899,-0.233 2.454,-0.717 0.556,-0.483 1.022,-1.344 1.362,-2.616l1.72 0 0 18.493 -1.72 0c-0.34,-1.272 -0.806,-2.151 -1.362,-2.616 -0.555,-0.484 -1.38,-0.717 -2.454,-0.717l-22.095 0z"/>
    <path class="fil0" d="M348.536 45.801l0 23.743c0,1.057 0.251,1.864 0.753,2.437 0.502,0.592 1.362,1.021 2.58,1.344l0 1.72 -22.363 0 0 -1.72c1.255,-0.359 2.115,-0.806 2.599,-1.362 0.483,-0.555 0.734,-1.362 0.734,-2.419l0 -60.656c0,-1.093 -0.251,-1.917 -0.734,-2.472 -0.484,-0.556 -1.344,-1.022 -2.599,-1.363l0 -1.72 44.869 0c5.466,0 9.802,0.323 13.01,0.95 3.207,0.627 6.002,1.738 8.386,3.315 2.759,1.828 4.82,4.3 6.2,7.419 1.29,3.01 1.935,6.235 1.935,9.676 0,11.719 -6.505,18.564 -19.496,20.571l13.923 19.728c2.437,3.459 4.229,5.681 5.376,6.684 1.147,0.986 2.526,1.541 4.175,1.649l0 1.72 -25.929 0 0 -1.72c1.774,-0.287 2.67,-0.914 2.67,-1.881 0,-0.628 -0.824,-2.151 -2.472,-4.57l-14.605 -21.073 -19.012 0zm0 -11.826l24.173 0c3.566,0 6.093,-0.108 7.562,-0.323 1.469,-0.197 2.831,-0.645 4.05,-1.308 2.67,-1.433 3.996,-4.032 3.996,-7.777 0,-3.745 -1.326,-6.343 -3.996,-7.777 -1.255,-0.698 -2.599,-1.146 -4.014,-1.344 -1.416,-0.196 -3.96,-0.286 -7.598,-0.286l-24.173 0 0 18.815z"/>
    <path class="fil0" d="M266.844 43.544l0 19.675 45.998 0c1.057,0 1.863,-0.252 2.419,-0.735 0.555,-0.484 1.021,-1.344 1.362,-2.598l1.72 0 0 18.492 -1.72 0c-0.341,-1.254 -0.807,-2.114 -1.362,-2.599 -0.556,-0.483 -1.362,-0.734 -2.419,-0.734l-65.028 0 0 -1.72c1.254,-0.359 2.114,-0.806 2.598,-1.362 0.484,-0.555 0.735,-1.38 0.735,-2.473l0 -60.602c0,-1.093 -0.251,-1.917 -0.735,-2.472 -0.484,-0.556 -1.344,-1.022 -2.598,-1.363l0 -1.72 63.738 0c1.057,0 1.863,-0.251 2.419,-0.734 0.555,-0.502 1.021,-1.362 1.362,-2.599l1.72 0 0 18.493 -1.72 0c-0.341,-1.237 -0.807,-2.097 -1.362,-2.599 -0.556,-0.483 -1.362,-0.734 -2.402,-0.734l-44.725 0 0 16.987 29.029 0c1.039,0 1.845,-0.251 2.401,-0.735 0.555,-0.483 1.021,-1.344 1.362,-2.598l1.719 0 0 18.063 -1.719 0c-0.341,-1.219 -0.807,-2.079 -1.362,-2.581 -0.556,-0.502 -1.362,-0.752 -2.401,-0.752l-29.029 0z"/>
    <path class="fil0" d="M227.081 50.478l9.999 14.944 -1.362 0.95c-0.986,-0.914 -1.792,-1.361 -2.419,-1.361 -0.627,0 -2.401,0.824 -5.304,2.508 -6.021,3.459 -11.092,5.806 -15.213,7.006 -4.122,1.201 -9.013,1.81 -14.694,1.81 -11.306,0 -20.589,-2.688 -27.846,-8.046 -4.264,-3.117 -7.633,-6.988 -10.089,-11.611 -2.831,-5.304 -4.246,-11.128 -4.246,-17.524 0,-8.692 2.545,-16.235 7.615,-22.65 7.634,-9.641 19.174,-14.461 34.62,-14.461 5.68,0 10.554,0.591 14.622,1.792 4.049,1.183 9.139,3.53 15.231,7.024 2.903,1.649 4.677,2.455 5.304,2.455 0.627,0 1.433,-0.448 2.419,-1.362l1.362 0.95 -9.999 14.962 -1.416 -0.949c0.072,-0.556 0.108,-1.021 0.108,-1.416 0,-1.003 -0.43,-1.953 -1.308,-2.849 -0.878,-0.896 -2.437,-1.971 -4.695,-3.226 -6.2,-3.494 -12.776,-5.232 -19.711,-5.232 -8.207,0 -14.747,2.061 -19.621,6.164 -5.752,4.802 -8.619,11.074 -8.619,18.833 0,7.759 2.867,14.031 8.619,18.833 4.874,4.103 11.414,6.164 19.621,6.164 6.935,0 13.511,-1.756 19.711,-5.25 2.258,-1.254 3.817,-2.33 4.695,-3.225 0.878,-0.897 1.308,-1.846 1.308,-2.867 0,-0.377 -0.036,-0.843 -0.108,-1.363l1.416 -1.003z"/>
    <g>
     <path class="fil0" d="M111.844 21.557c-14.879,32.147 -8.375,18.554 -21.216,45.228 -0.663,1.415 -1.004,2.508 -1.004,3.315 0,1.559 1.183,2.634 3.531,3.225l0 1.72 -23.707 0 0 -1.72c1.397,-0.286 2.472,-0.77 3.207,-1.469 0.735,-0.699 1.577,-2.061 2.509,-4.086l26.359 -55.048c0.842,-1.755 1.254,-3.153 1.254,-4.21 0,-1.613 -1.003,-2.76 -3.046,-3.459l0 -1.72 25.409 0 0 1.72c-2.078,0.591 -3.1,1.631 -3.1,3.1 0,1.004 0.323,2.168 0.986,3.459l27.273 55.208c1.164,2.348 2.168,3.943 3.046,4.803 0.878,0.86 2.043,1.416 3.512,1.702l0 1.72 -26.449 0 0 -1.72c2.312,-0.394 3.459,-1.469 3.459,-3.261 0,-0.753 -0.359,-1.846 -1.057,-3.279 -17.437,-35.441 -3.289,-6.322 -20.966,-45.228z"/>
     <polygon class="fil1" points="81.906,37.343 77.468,42.316 100.562,65.19 157.751,10.337 149.086,9.342 102.464,47.786 "/>
    </g>
   </g>
  </g>
 </g>
</svg>
